<svg width="16" height="17" viewBox="0 0 16 17" fill="none" xmlns="http://www.w3.org/2000/svg">
<path fill-rule="evenodd" clip-rule="evenodd" d="M9.80623 6.67674C8.42137 5.41276 7.17836 3.81969 5.51245 0.939647L6.55193 0.316406C8.18261 3.13555 9.35227 4.61295 10.6115 5.76224C11.4908 6.56479 12.4073 7.20597 13.5865 8.03086C14.1364 8.41552 14.7434 8.84014 15.4303 9.3397L14.7291 10.3391C14.0964 9.87895 13.516 9.47278 12.9762 9.09506C11.757 8.24182 10.7453 7.5338 9.80623 6.67674Z" fill="white"/>
<path fill-rule="evenodd" clip-rule="evenodd" d="M14.7412 10.181C13.8374 13.0129 11.2232 15.0582 8.14277 15.0582C4.31188 15.0582 1.20634 11.8964 1.20634 7.99615C1.20634 4.883 3.18582 2.23753 5.93564 1.29876C5.93539 1.343 5.92849 1.38736 5.91505 1.42836C4.98891 4.25273 5.89784 6.81229 7.67102 8.45763C9.41077 10.0719 11.9867 10.8196 14.4794 10.1781C14.544 10.1615 14.6205 10.1581 14.6971 10.1714C14.7128 10.1741 14.7276 10.1774 14.7412 10.181ZM15.957 10.3351C16.2324 9.37958 15.132 8.74333 14.1837 8.98737C10.0082 10.062 5.53379 6.46952 7.05931 1.81729C7.37002 0.869725 6.77102 -0.2382 5.83008 0.0450471C2.45945 1.0597 0 4.23551 0 7.99615C0 12.5747 3.64564 16.2864 8.14277 16.2864C11.8421 16.2864 14.9653 13.7748 15.957 10.3351Z" fill="white"/>
</svg>
