<svg width="17" height="15" viewBox="0 0 17 15" fill="none" xmlns="http://www.w3.org/2000/svg">
<g opacity="0.3">
<path d="M0 5.375C0 4.89175 0.335786 4.5 0.75 4.5H2.25C2.66421 4.5 3 4.89175 3 5.375V15H0V5.375Z" fill="white"/>
<path d="M4.5 0.9375C4.5 0.419733 4.83579 0 5.25 0H6.75C7.16421 0 7.5 0.419733 7.5 0.9375V15H4.5V0.9375Z" fill="white"/>
<path d="M9 5.375C9 4.89175 9.33579 4.5 9.75 4.5H11.25C11.6642 4.5 12 4.89175 12 5.375V15H9V5.375Z" fill="white"/>
<path d="M13.5 8.4375C13.5 7.91973 13.8358 7.5 14.25 7.5H15.75C16.1642 7.5 16.5 7.91973 16.5 8.4375V15H13.5V8.4375Z" fill="white"/>
</g>
</svg>
