<svg width="15" height="15" viewBox="0 0 15 15" fill="none" xmlns="http://www.w3.org/2000/svg">
<path fill-rule="evenodd" clip-rule="evenodd" d="M13.8201 9.37732C12.9728 11.9857 10.5219 13.8696 7.63395 13.8696C4.04245 13.8696 1.13096 10.9574 1.13096 7.36498C1.13096 4.49756 2.98674 2.06091 5.56474 1.19624C5.5645 1.237 5.55804 1.27785 5.54544 1.31561C4.67717 3.91704 5.5293 6.27456 7.19168 7.79002C8.82272 9.27691 11.2377 9.96555 13.5746 9.3747C13.6352 9.35937 13.7069 9.35628 13.7787 9.36851C13.7935 9.37102 13.8073 9.37402 13.8201 9.37732ZM14.9599 9.51931C15.2181 8.63921 14.1865 8.05317 13.2974 8.27796C9.3828 9.26772 5.188 5.95885 6.61819 1.67384C6.90949 0.801074 6.34792 -0.219398 5.46578 0.0414913C2.30577 0.976054 0 3.90118 0 7.36498C0 11.5821 3.41784 15.0008 7.63395 15.0008C11.1021 15.0008 14.0302 12.6875 14.9599 9.51931Z" fill="white"/>
</svg>
