<svg width="10" height="10" viewBox="0 0 10 10" fill="none" xmlns="http://www.w3.org/2000/svg">
<path opacity="0.4" d="M8.93127 7.85699C8.68554 7.62164 8.44638 7.37953 8.21406 7.13094C8.01889 6.93264 7.90136 6.78837 7.90136 6.78837L6.43232 6.08698C7.02046 5.42002 7.34505 4.56143 7.34523 3.67223C7.34523 1.64778 5.6978 0 3.67261 0C1.64743 0 0 1.64778 0 3.67223C0 5.69667 1.64743 7.34445 3.67261 7.34445C4.59759 7.34445 5.44071 6.99822 6.08762 6.43217L6.78909 7.90106C6.78909 7.90106 6.93337 8.01857 7.13169 8.21372C7.33473 8.40415 7.60178 8.66174 7.85782 8.93086L8.5703 9.66111L8.8872 10L10 8.88731L9.66107 8.57045C9.46222 8.3753 9.19675 8.11615 8.93127 7.85699ZM3.67261 6.29525C2.22613 6.29525 1.04932 5.11856 1.04932 3.67223C1.04932 2.22589 2.22613 1.04921 3.67261 1.04921C5.1191 1.04921 6.29591 2.22589 6.29591 3.67223C6.29591 5.11856 5.1191 6.29525 3.67261 6.29525Z" fill="black"/>
</svg>
